# setting LC_ALL to "C"
# --> Including file '/var/local/sponce/native/Gaudi/GaudiExamples/options/FunctionalAlgorithms/ProduceConsume.py'
# <-- End of file '/var/local/sponce/native/Gaudi/GaudiExamples/options/FunctionalAlgorithms/ProduceConsume.py'
ApplicationMgr    SUCCESS
====================================================================================================================================
                                                   Welcome to ApplicationMgr (GaudiCoreSvc v28r1)
                                          running on lblhcbpr3.cern.ch on Tue Apr 18 09:48:23 2017
====================================================================================================================================
ApplicationMgr       INFO Application Manager Configured successfully
EventLoopMgr      WARNING Unable to locate service "EventSelector"
EventLoopMgr      WARNING No events will be processed from external input.
HistogramPersis...WARNING Histograms saving not required.
ApplicationMgr       INFO Application Manager Initialized successfully
ApplicationMgr       INFO Application Manager Started successfully
IntDataProducer      INFO executing IntDataProducer, storing 7 into /Event/MyInt
OtherIntDataPro...   INFO executing IntDataProducer, storing 7 into /Event/MyOtherInt
IntDataConsumer      INFO executing IntDataConsumer, consuming 7 from /Event/MyInt
IntToFloatData       INFO Converting: 7 from /Event/MyInt and storing it into /Event/MyFloat
IntIntToFloatFl...   INFO Number of inputs : 2, number of outputs : 2
IntIntToFloatFl...   INFO Converting 7 from /Event/MyInt and 7 from /Event/MyOtherInt
IntIntToFloatFl...   INFO Storing results into /Event/MyMultiFloat1 and /Event/MyMultiFloat2
FloatDataConsumer    INFO executing FloatDataConsumer: 7
IntDataProducer      INFO executing IntDataProducer, storing 7 into /Event/MyInt
OtherIntDataPro...   INFO executing IntDataProducer, storing 7 into /Event/MyOtherInt
IntDataConsumer      INFO executing IntDataConsumer, consuming 7 from /Event/MyInt
IntToFloatData       INFO Converting: 7 from /Event/MyInt and storing it into /Event/MyFloat
IntIntToFloatFl...   INFO Number of inputs : 2, number of outputs : 2
IntIntToFloatFl...   INFO Converting 7 from /Event/MyInt and 7 from /Event/MyOtherInt
IntIntToFloatFl...   INFO Storing results into /Event/MyMultiFloat1 and /Event/MyMultiFloat2
FloatDataConsumer    INFO executing FloatDataConsumer: 7
ApplicationMgr       INFO Application Manager Stopped successfully
EventLoopMgr         INFO Histograms converted successfully according to request.
ApplicationMgr       INFO Application Manager Finalized successfully
ApplicationMgr       INFO Application Manager Terminated successfully
