<?xml version="1.0" encoding="utf-8"?><graphml xmlns="http://graphml.graphdrawing.org/xmlns" xmlns:xsi="http://www.w3.org/2001/XMLSchema-instance" xsi:schemaLocation="http://graphml.graphdrawing.org/xmlns http://graphml.graphdrawing.org/xmlns/1.0/graphml.xsd">
  <key attr.name="type" attr.type="string" for="node" id="d0" />
  <graph edgedefault="directed">
    <node id="EcalClusterMon">
      <data key="d0">GaudiAlgorithm</data>
    </node>
    <node id="MuonROFilter">
      <data key="d0">GaudiAlgorithm</data>
    </node>
    <node id="PatForward">
      <data key="d0">GaudiAlgorithm</data>
    </node>
    <node id="/Event/Rec/Calo/InAccHcal">
      <data key="d0">DataObject</data>
    </node>
    <node id="RichHlt1Filter">
      <data key="d0">GaudiAlgorithm</data>
    </node>
    <node id="ChargedProtoPAddMuon">
      <data key="d0">GaudiAlgorithm</data>
    </node>
    <node id="/Event/pRec/Muon/MuonPID">
      <data key="d0">DataObject</data>
    </node>
    <node id="PatMatch">
      <data key="d0">GaudiAlgorithm</data>
    </node>
    <node id="TTTrackMonitor">
      <data key="d0">GaudiAlgorithm</data>
    </node>
    <node id="/Event/pRec/Vertex/Primary">
      <data key="d0">DataObject</data>
    </node>
    <node id="ChargedProtoPAddVeloDEDX">
      <data key="d0">GaudiAlgorithm</data>
    </node>
    <node id="/Event/Transient/DAQ/Status">
      <data key="d0">DataObject</data>
    </node>
    <node id="ITTrackMonitor">
      <data key="d0">GaudiAlgorithm</data>
    </node>
    <node id="RiMatchTrkEff">
      <data key="d0">GaudiAlgorithm</data>
    </node>
    <node id="L0DUFromRaw">
      <data key="d0">GaudiAlgorithm</data>
    </node>
    <node id="EcalProcStatus">
      <data key="d0">GaudiAlgorithm</data>
    </node>
    <node id="/Event/Rec/Vertex/V0">
      <data key="d0">DataObject</data>
    </node>
    <node id="DstWriter">
      <data key="d0">GaudiAlgorithm</data>
    </node>
    <node id="EcalZSup">
      <data key="d0">GaudiAlgorithm</data>
    </node>
    <node id="/Event/Rec/Calo/InAccSpd">
      <data key="d0">DataObject</data>
    </node>
    <node id="/Event/Rec/Track/Muon">
      <data key="d0">DataObject</data>
    </node>
    <node id="RiSeedTrkEff">
      <data key="d0">GaudiAlgorithm</data>
    </node>
    <node id="ANNGPIDLongPion">
      <data key="d0">GaudiAlgorithm</data>
    </node>
    <node id="TrackAddNNGhostId">
      <data key="d0">GaudiAlgorithm</data>
    </node>
    <node id="AlignmentOnlineMonitor">
      <data key="d0">GaudiAlgorithm</data>
    </node>
    <node id="/Event/Rec/Calo/SplitPhotons">
      <data key="d0">DataObject</data>
    </node>
    <node id="PackChargedProtos">
      <data key="d0">GaudiAlgorithm</data>
    </node>
    <node id="EcalPIDe">
      <data key="d0">GaudiAlgorithm</data>
    </node>
    <node id="/Event/DAQ/RawEvent">
      <data key="d0">DataObject</data>
    </node>
    <node id="/Event/Rec/Calo/EcalSplitClusters">
      <data key="d0">DataObject</data>
    </node>
    <node id="FilterNoBeam">
      <data key="d0">GaudiAlgorithm</data>
    </node>
    <node id="MuonTrackFitter">
      <data key="d0">GaudiAlgorithm</data>
    </node>
    <node id="Framework">
      <data key="d0">FakeAlgorithm</data>
    </node>
    <node id="CreateOfflineTracks">
      <data key="d0">GaudiAlgorithm</data>
    </node>
    <node id="PackMergedPi0s">
      <data key="d0">GaudiAlgorithm</data>
    </node>
    <node id="/Event/Raw/IT/LiteClusters">
      <data key="d0">DataObject</data>
    </node>
    <node id="RiForwardTrkEff">
      <data key="d0">GaudiAlgorithm</data>
    </node>
    <node id="RichOfflineGPIDLLIt0">
      <data key="d0">GaudiAlgorithm</data>
    </node>
    <node id="BrunelInit">
      <data key="d0">GaudiAlgorithm</data>
    </node>
    <node id="ChargedProtoPMaker">
      <data key="d0">GaudiAlgorithm</data>
    </node>
    <node id="create_Other_RawEvent">
      <data key="d0">GaudiAlgorithm</data>
    </node>
    <node id="TrackAddLikelihood">
      <data key="d0">GaudiAlgorithm</data>
    </node>
    <node id="ChargedProtoPAddHcal">
      <data key="d0">GaudiAlgorithm</data>
    </node>
    <node id="PhotonMon">
      <data key="d0">GaudiAlgorithm</data>
    </node>
    <node id="CaloEMuPIDMonUncut">
      <data key="d0">GaudiAlgorithm</data>
    </node>
    <node id="create_Trigger_RawEvent">
      <data key="d0">GaudiAlgorithm</data>
    </node>
    <node id="/Event/Rec/Calo/HcalE">
      <data key="d0">DataObject</data>
    </node>
    <node id="/Event/Rec/Calo/PhotonFromMergedID">
      <data key="d0">DataObject</data>
    </node>
    <node id="/Event/Raw/Prs/Digits">
      <data key="d0">DataObject</data>
    </node>
    <node id="ANNGPIDLongGhost">
      <data key="d0">GaudiAlgorithm</data>
    </node>
    <node id="ElectronMatch">
      <data key="d0">GaudiAlgorithm</data>
    </node>
    <node id="TrackMonitor">
      <data key="d0">GaudiAlgorithm</data>
    </node>
    <node id="PhotonMatchMon">
      <data key="d0">GaudiAlgorithm</data>
    </node>
    <node id="RiCKResVeloTT">
      <data key="d0">GaudiAlgorithm</data>
    </node>
    <node id="/Event/Trig/L0/L0DUReport">
      <data key="d0">DataObject</data>
    </node>
    <node id="EventTimeMonitor">
      <data key="d0">GaudiAlgorithm</data>
    </node>
    <node id="ChargedProtoPMoni">
      <data key="d0">GaudiAlgorithm</data>
    </node>
    <node id="SpdFromRaw">
      <data key="d0">GaudiAlgorithm</data>
    </node>
    <node id="createTTLiteClusters">
      <data key="d0">GaudiAlgorithm</data>
    </node>
    <node id="RiPIDMonLong2To100">
      <data key="d0">GaudiAlgorithm</data>
    </node>
    <node id="TrackPrsMatchMonitor">
      <data key="d0">GaudiAlgorithm</data>
    </node>
    <node id="/Event/Rec/Rich/ENN/Offline/RingsBest">
      <data key="d0">DataObject</data>
    </node>
    <node id="TrackEraseExtraInfo">
      <data key="d0">GaudiAlgorithm</data>
    </node>
    <node id="TrackVeloOverlapMonitor">
      <data key="d0">GaudiAlgorithm</data>
    </node>
    <node id="PrsDigitMon">
      <data key="d0">GaudiAlgorithm</data>
    </node>
    <node id="/Event/Rec/Muon/MuonPID">
      <data key="d0">DataObject</data>
    </node>
    <node id="HltCompositionMonitor">
      <data key="d0">GaudiAlgorithm</data>
    </node>
    <node id="/Event/Rec/Calo/ClusterMatch">
      <data key="d0">DataObject</data>
    </node>
    <node id="/Event/Rec/Calo/HcalPIDmu">
      <data key="d0">DataObject</data>
    </node>
    <node id="FilterBeam2">
      <data key="d0">GaudiAlgorithm</data>
    </node>
    <node id="/Event/Rec/Calo/EcalE">
      <data key="d0">DataObject</data>
    </node>
    <node id="FilterBeam1">
      <data key="d0">GaudiAlgorithm</data>
    </node>
    <node id="ANNGPIDDownstreamPion">
      <data key="d0">GaudiAlgorithm</data>
    </node>
    <node id="/Event/Rec/Calo/Photons">
      <data key="d0">DataObject</data>
    </node>
    <node id="TTClusterMonitor">
      <data key="d0">GaudiAlgorithm</data>
    </node>
    <node id="TrackITOverlapMonitor">
      <data key="d0">GaudiAlgorithm</data>
    </node>
    <node id="PackMuonPIDs">
      <data key="d0">GaudiAlgorithm</data>
    </node>
    <node id="/Event/Muon/RawEvent">
      <data key="d0">DataObject</data>
    </node>
    <node id="/Event/Rec/Track/Best">
      <data key="d0">DataObject</data>
    </node>
    <node id="SpdMon">
      <data key="d0">GaudiAlgorithm</data>
    </node>
    <node id="create_Calo_RawEvent">
      <data key="d0">GaudiAlgorithm</data>
    </node>
    <node id="MergedPi0Rec">
      <data key="d0">GaudiAlgorithm</data>
    </node>
    <node id="RecSummary">
      <data key="d0">GaudiAlgorithm</data>
    </node>
    <node id="BremPIDe">
      <data key="d0">GaudiAlgorithm</data>
    </node>
    <node id="/Event/Rec/Track/Velo">
      <data key="d0">DataObject</data>
    </node>
    <node id="ANNGPIDUpstreamElectron">
      <data key="d0">GaudiAlgorithm</data>
    </node>
    <node id="/Event/Raw/TT/LiteClusters">
      <data key="d0">DataObject</data>
    </node>
    <node id="HcalPIDe">
      <data key="d0">GaudiAlgorithm</data>
    </node>
    <node id="CheckProcOfflineStatus">
      <data key="d0">GaudiAlgorithm</data>
    </node>
    <node id="MergedID">
      <data key="d0">GaudiAlgorithm</data>
    </node>
    <node id="/Event/Rec/Summary">
      <data key="d0">DataObject</data>
    </node>
    <node id="ChargedProtoANNPIDMoni">
      <data key="d0">GaudiAlgorithm</data>
    </node>
    <node id="EcalDigitMon">
      <data key="d0">GaudiAlgorithm</data>
    </node>
    <node id="FastVeloTracking">
      <data key="d0">GaudiAlgorithm</data>
    </node>
    <node id="/Event/Raw/IT/Clusters">
      <data key="d0">DataObject</data>
    </node>
    <node id="RiPIDMonLong2To10">
      <data key="d0">GaudiAlgorithm</data>
    </node>
    <node id="/Event/pRec/Rich/PIDs">
      <data key="d0">DataObject</data>
    </node>
    <node id="HcalZSup">
      <data key="d0">GaudiAlgorithm</data>
    </node>
    <node id="NeutralProtoPMaker">
      <data key="d0">GaudiAlgorithm</data>
    </node>
    <node id="PackTwoProngVertex">
      <data key="d0">GaudiAlgorithm</data>
    </node>
    <node id="ChargedProtoPAddRich">
      <data key="d0">GaudiAlgorithm</data>
    </node>
    <node id="/Event/pRec/Calo/Electrons">
      <data key="d0">DataObject</data>
    </node>
    <node id="ANNGPIDDownstreamMuon">
      <data key="d0">GaudiAlgorithm</data>
    </node>
    <node id="RiPIDMonLong10To70">
      <data key="d0">GaudiAlgorithm</data>
    </node>
    <node id="/Event/Rec/Rich/GlobalPID/Offline/Tracks">
      <data key="d0">DataObject</data>
    </node>
    <node id="MuMonitor">
      <data key="d0">GaudiAlgorithm</data>
    </node>
    <node id="EcalClust">
      <data key="d0">GaudiAlgorithm</data>
    </node>
    <node id="ANNGPIDDownstreamElectron">
      <data key="d0">GaudiAlgorithm</data>
    </node>
    <node id="RiCKResForward">
      <data key="d0">GaudiAlgorithm</data>
    </node>
    <node id="/Event/Rec/Calo/InAccEcal">
      <data key="d0">DataObject</data>
    </node>
    <node id="CaloEMuPIDMonSoft">
      <data key="d0">GaudiAlgorithm</data>
    </node>
    <node id="ENNRingMoniAll">
      <data key="d0">GaudiAlgorithm</data>
    </node>
    <node id="PhysFilter">
      <data key="d0">GaudiAlgorithm</data>
    </node>
    <node id="ANNGPIDUpstreamMuon">
      <data key="d0">GaudiAlgorithm</data>
    </node>
    <node id="/Event/Rec/Rich/GlobalPID/Offline/PIDs">
      <data key="d0">DataObject</data>
    </node>
    <node id="RichDecodingErrors">
      <data key="d0">GaudiAlgorithm</data>
    </node>
    <node id="OTHitEfficiencyMonitor">
      <data key="d0">GaudiAlgorithm</data>
    </node>
    <node id="EcalEFlowMon">
      <data key="d0">GaudiAlgorithm</data>
    </node>
    <node id="SpdDigitMon">
      <data key="d0">GaudiAlgorithm</data>
    </node>
    <node id="ResolvedPi0Mon">
      <data key="d0">GaudiAlgorithm</data>
    </node>
    <node id="HltRateMonitor">
      <data key="d0">GaudiAlgorithm</data>
    </node>
    <node id="/Event/Rec/Calo/Electrons">
      <data key="d0">DataObject</data>
    </node>
    <node id="EcalShare">
      <data key="d0">GaudiAlgorithm</data>
    </node>
    <node id="TrackVertexMonitor">
      <data key="d0">GaudiAlgorithm</data>
    </node>
    <node id="/Event/Rec/Track/VeloTT">
      <data key="d0">DataObject</data>
    </node>
    <node id="RichOfflineGPIDDigSel">
      <data key="d0">GaudiAlgorithm</data>
    </node>
    <node id="/Event/pRec/Calo/Photons">
      <data key="d0">DataObject</data>
    </node>
    <node id="TrackPV2HalfAlignMonitor">
      <data key="d0">GaudiAlgorithm</data>
    </node>
    <node id="HcalProcStatus">
      <data key="d0">GaudiAlgorithm</data>
    </node>
    <node id="InBREM">
      <data key="d0">GaudiAlgorithm</data>
    </node>
    <node id="PhotonFromMergedID">
      <data key="d0">GaudiAlgorithm</data>
    </node>
    <node id="HcalPIDmu">
      <data key="d0">GaudiAlgorithm</data>
    </node>
    <node id="/Event/Rec/Track/Downstream">
      <data key="d0">DataObject</data>
    </node>
    <node id="RichOfflineGPIDFin">
      <data key="d0">GaudiAlgorithm</data>
    </node>
    <node id="ANNGPIDUpstreamPion">
      <data key="d0">GaudiAlgorithm</data>
    </node>
    <node id="/Event/Calo/RawEvent">
      <data key="d0">DataObject</data>
    </node>
    <node id="/Event/Rec/Rich/ENN/Offline/RingsAll">
      <data key="d0">DataObject</data>
    </node>
    <node id="PackRichPIDs">
      <data key="d0">GaudiAlgorithm</data>
    </node>
    <node id="/Event/Rec/Calo/BremPIDe">
      <data key="d0">DataObject</data>
    </node>
    <node id="MergeOfflineRichPIDs">
      <data key="d0">GaudiAlgorithm</data>
    </node>
    <node id="/Event/pRec/ProtoP/Neutrals">
      <data key="d0">DataObject</data>
    </node>
    <node id="OTTrackMonitor">
      <data key="d0">GaudiAlgorithm</data>
    </node>
    <node id="PrsFromRaw">
      <data key="d0">GaudiAlgorithm</data>
    </node>
    <node id="/Event/Rec/Track/Forward">
      <data key="d0">DataObject</data>
    </node>
    <node id="MuonProcStatus">
      <data key="d0">GaudiAlgorithm</data>
    </node>
    <node id="ANNGPIDDownstreamGhost">
      <data key="d0">GaudiAlgorithm</data>
    </node>
    <node id="RiCKResKsTrackTight">
      <data key="d0">GaudiAlgorithm</data>
    </node>
    <node id="/Event/pRec/ProtoP/Charged">
      <data key="d0">DataObject</data>
    </node>
    <node id="OfflineIsolatedENNRings">
      <data key="d0">GaudiAlgorithm</data>
    </node>
    <node id="/Event/Rec/ProtoP/Charged">
      <data key="d0">DataObject</data>
    </node>
    <node id="ANNGPIDLongProton">
      <data key="d0">GaudiAlgorithm</data>
    </node>
    <node id="BremChi22ID">
      <data key="d0">GaudiAlgorithm</data>
    </node>
    <node id="HcalE">
      <data key="d0">GaudiAlgorithm</data>
    </node>
    <node id="RiPIDMonLong70To100">
      <data key="d0">GaudiAlgorithm</data>
    </node>
    <node id="ProtoParticlePIDClean">
      <data key="d0">GaudiAlgorithm</data>
    </node>
    <node id="/Event/Rec/Calo/MergedID">
      <data key="d0">DataObject</data>
    </node>
    <node id="TrackBestTrackCreator">
      <data key="d0">GaudiAlgorithm</data>
    </node>
    <node id="CaloEMuPIDMonHard">
      <data key="d0">GaudiAlgorithm</data>
    </node>
    <node id="OfflineENNFinderR2GasLeft">
      <data key="d0">GaudiAlgorithm</data>
    </node>
    <node id="/Event/Rec/Calo/PhotonID">
      <data key="d0">DataObject</data>
    </node>
    <node id="createITClusters">
      <data key="d0">GaudiAlgorithm</data>
    </node>
    <node id="TimeSpanFilter">
      <data key="d0">GaudiAlgorithm</data>
    </node>
    <node id="ElectronMatchMon">
      <data key="d0">GaudiAlgorithm</data>
    </node>
    <node id="HltRateMonitorMB">
      <data key="d0">GaudiAlgorithm</data>
    </node>
    <node id="/Event/Rec/Calo/SpdE">
      <data key="d0">DataObject</data>
    </node>
    <node id="/Event/Hlt/DecReports">
      <data key="d0">DataObject</data>
    </node>
    <node id="RiCKResSeedTight">
      <data key="d0">GaudiAlgorithm</data>
    </node>
    <node id="RiCKResKsTrack">
      <data key="d0">GaudiAlgorithm</data>
    </node>
    <node id="/Event/Rec/Calo/BremChi2">
      <data key="d0">DataObject</data>
    </node>
    <node id="/Event/Rec/Calo/HcalPIDe">
      <data key="d0">DataObject</data>
    </node>
    <node id="ANNGPIDUpstreamProton">
      <data key="d0">GaudiAlgorithm</data>
    </node>
    <node id="/Event/Rec/Calo/EcalPIDe">
      <data key="d0">DataObject</data>
    </node>
    <node id="SinglePhotonRec">
      <data key="d0">GaudiAlgorithm</data>
    </node>
    <node id="/Event/pRec/Calo/MergedPi0s">
      <data key="d0">DataObject</data>
    </node>
    <node id="/Event/Raw/Velo/Clusters">
      <data key="d0">DataObject</data>
    </node>
    <node id="/Event/Rec/Track/Match">
      <data key="d0">DataObject</data>
    </node>
    <node id="/Event/Raw/Muon/Coords">
      <data key="d0">DataObject</data>
    </node>
    <node id="/Event/Raw/Spd/Digits">
      <data key="d0">DataObject</data>
    </node>
    <node id="ChargedProtoPAddBrem">
      <data key="d0">GaudiAlgorithm</data>
    </node>
    <node id="HltErrorFilter">
      <data key="d0">GaudiAlgorithm</data>
    </node>
    <node id="/Event/Rec/Rich/ENN/Offline/RingsIsolated">
      <data key="d0">DataObject</data>
    </node>
    <node id="PackNeutralProtos">
      <data key="d0">GaudiAlgorithm</data>
    </node>
    <node id="PhotonID">
      <data key="d0">GaudiAlgorithm</data>
    </node>
    <node id="FilterMuonTrackStates">
      <data key="d0">GaudiAlgorithm</data>
    </node>
    <node id="RichRawDataSize">
      <data key="d0">GaudiAlgorithm</data>
    </node>
    <node id="/Event/Rec/Calo/PrsPIDe">
      <data key="d0">DataObject</data>
    </node>
    <node id="OfflineENNFinderR1GasTop">
      <data key="d0">GaudiAlgorithm</data>
    </node>
    <node id="PrsE">
      <data key="d0">GaudiAlgorithm</data>
    </node>
    <node id="TrackFitMatchMonitor">
      <data key="d0">GaudiAlgorithm</data>
    </node>
    <node id="VeloIPResolutionMonitor">
      <data key="d0">GaudiAlgorithm</data>
    </node>
    <node id="ClusterMatch">
      <data key="d0">GaudiAlgorithm</data>
    </node>
    <node id="/Event/Rec/Calo/InAccBrem">
      <data key="d0">DataObject</data>
    </node>
    <node id="/Event/Rec/Calo/InAccPrs">
      <data key="d0">DataObject</data>
    </node>
    <node id="MuonIDAlg">
      <data key="d0">GaudiAlgorithm</data>
    </node>
    <node id="ANNGPIDLongKaon">
      <data key="d0">GaudiAlgorithm</data>
    </node>
    <node id="ENNRingMoniBest">
      <data key="d0">GaudiAlgorithm</data>
    </node>
    <node id="PatPVOffline">
      <data key="d0">GaudiAlgorithm</data>
    </node>
    <node id="/Event/Raw/Velo/LiteClusters">
      <data key="d0">DataObject</data>
    </node>
    <node id="MuonTrackAligMonitor">
      <data key="d0">GaudiAlgorithm</data>
    </node>
    <node id="CreateOfflinePhotons">
      <data key="d0">GaudiAlgorithm</data>
    </node>
    <node id="RiCKResForwardTight">
      <data key="d0">GaudiAlgorithm</data>
    </node>
    <node id="RiCKResMatchTight">
      <data key="d0">GaudiAlgorithm</data>
    </node>
    <node id="MuonRec">
      <data key="d0">GaudiAlgorithm</data>
    </node>
    <node id="/Event/Rec/Calo/ElectronMatch">
      <data key="d0">DataObject</data>
    </node>
    <node id="create_Rich_RawEvent">
      <data key="d0">GaudiAlgorithm</data>
    </node>
    <node id="PrsPIDe">
      <data key="d0">GaudiAlgorithm</data>
    </node>
    <node id="ANNGPIDDownstreamKaon">
      <data key="d0">GaudiAlgorithm</data>
    </node>
    <node id="InSPD">
      <data key="d0">GaudiAlgorithm</data>
    </node>
    <node id="PrsProcStatus">
      <data key="d0">GaudiAlgorithm</data>
    </node>
    <node id="PackRecVertex">
      <data key="d0">GaudiAlgorithm</data>
    </node>
    <node id="RiLongTrkEff">
      <data key="d0">GaudiAlgorithm</data>
    </node>
    <node id="RiVeloTTTrkEff">
      <data key="d0">GaudiAlgorithm</data>
    </node>
    <node id="/Event/Raw/Hcal/Digits">
      <data key="d0">DataObject</data>
    </node>
    <node id="RiKsTrackTrkEff">
      <data key="d0">GaudiAlgorithm</data>
    </node>
    <node id="PatDownstream">
      <data key="d0">GaudiAlgorithm</data>
    </node>
    <node id="/Event/Trigger/RawEvent">
      <data key="d0">DataObject</data>
    </node>
    <node id="BremMatchMon">
      <data key="d0">GaudiAlgorithm</data>
    </node>
    <node id="EcalPIDmu">
      <data key="d0">GaudiAlgorithm</data>
    </node>
    <node id="SplitPhotonMon">
      <data key="d0">GaudiAlgorithm</data>
    </node>
    <node id="/Event/Rec/Calo/BremMatch">
      <data key="d0">DataObject</data>
    </node>
    <node id="ANNGPIDUpstreamKaon">
      <data key="d0">GaudiAlgorithm</data>
    </node>
    <node id="/Event/pRec/Vertex/V0">
      <data key="d0">DataObject</data>
    </node>
    <node id="EcalChi22ID">
      <data key="d0">GaudiAlgorithm</data>
    </node>
    <node id="InECAL">
      <data key="d0">GaudiAlgorithm</data>
    </node>
    <node id="/Event/pRec/Track/Muon">
      <data key="d0">DataObject</data>
    </node>
    <node id="MergedPi0Mon">
      <data key="d0">GaudiAlgorithm</data>
    </node>
    <node id="SpdE">
      <data key="d0">GaudiAlgorithm</data>
    </node>
    <node id="MuonPIDMonitorLong">
      <data key="d0">GaudiAlgorithm</data>
    </node>
    <node id="ANNGPIDLongElectron">
      <data key="d0">GaudiAlgorithm</data>
    </node>
    <node id="RiCKResSeed">
      <data key="d0">GaudiAlgorithm</data>
    </node>
    <node id="ANNGPIDLongMuon">
      <data key="d0">GaudiAlgorithm</data>
    </node>
    <node id="ChargedProtoPAddSpd">
      <data key="d0">GaudiAlgorithm</data>
    </node>
    <node id="ProcStatAbortMoni">
      <data key="d0">GaudiAlgorithm</data>
    </node>
    <node id="TrackAlignMonitor">
      <data key="d0">GaudiAlgorithm</data>
    </node>
    <node id="BremMatch">
      <data key="d0">GaudiAlgorithm</data>
    </node>
    <node id="/Event/Raw/Ecal/Digits">
      <data key="d0">DataObject</data>
    </node>
    <node id="createITLiteClusters">
      <data key="d0">GaudiAlgorithm</data>
    </node>
    <node id="PackPhotons">
      <data key="d0">GaudiAlgorithm</data>
    </node>
    <node id="ClusChi22ID">
      <data key="d0">GaudiAlgorithm</data>
    </node>
    <node id="RiCKResVeloTTTight">
      <data key="d0">GaudiAlgorithm</data>
    </node>
    <node id="RiCKResMatch">
      <data key="d0">GaudiAlgorithm</data>
    </node>
    <node id="EcalCovar">
      <data key="d0">GaudiAlgorithm</data>
    </node>
    <node id="FindTrackClones">
      <data key="d0">GaudiAlgorithm</data>
    </node>
    <node id="RichOfflineGPIDLLIt1">
      <data key="d0">GaudiAlgorithm</data>
    </node>
    <node id="/Event/Rec/Calo/EcalClusters">
      <data key="d0">DataObject</data>
    </node>
    <node id="TrackDiMuonMonitor">
      <data key="d0">GaudiAlgorithm</data>
    </node>
    <node id="VeloClusterMonitor">
      <data key="d0">GaudiAlgorithm</data>
    </node>
    <node id="ChargedProtoPAddEcal">
      <data key="d0">GaudiAlgorithm</data>
    </node>
    <node id="ANNGPIDUpstreamGhost">
      <data key="d0">GaudiAlgorithm</data>
    </node>
    <node id="ChargedProtoPCombDLLs">
      <data key="d0">GaudiAlgorithm</data>
    </node>
    <node id="RichL0Filter">
      <data key="d0">GaudiAlgorithm</data>
    </node>
    <node id="/Event/Rec/Vertex/Primary">
      <data key="d0">DataObject</data>
    </node>
    <node id="TrackV0Finder">
      <data key="d0">GaudiAlgorithm</data>
    </node>
    <node id="TrackSpdMatchMonitor">
      <data key="d0">GaudiAlgorithm</data>
    </node>
    <node id="TrackMuonMatchMonitor">
      <data key="d0">GaudiAlgorithm</data>
    </node>
    <node id="/Event/pRec/Calo/SplitPhotons">
      <data key="d0">DataObject</data>
    </node>
    <node id="VeloTrackMonitor">
      <data key="d0">GaudiAlgorithm</data>
    </node>
    <node id="/Event/Rec/Rich/PIDs">
      <data key="d0">DataObject</data>
    </node>
    <node id="/Event/Raw/TT/Clusters">
      <data key="d0">DataObject</data>
    </node>
    <node id="ProtoElectronMon">
      <data key="d0">GaudiAlgorithm</data>
    </node>
    <node id="FilterBeamCrossing">
      <data key="d0">GaudiAlgorithm</data>
    </node>
    <node id="PatVeloTT">
      <data key="d0">GaudiAlgorithm</data>
    </node>
    <node id="RichOfflineGPIDTrSel">
      <data key="d0">GaudiAlgorithm</data>
    </node>
    <node id="/Event/Rich/RawEvent">
      <data key="d0">DataObject</data>
    </node>
    <node id="CaloDigitFilter">
      <data key="d0">GaudiAlgorithm</data>
    </node>
    <node id="RiCKResLongTight">
      <data key="d0">GaudiAlgorithm</data>
    </node>
    <node id="/Event/Rec/Calo/EcalChi2">
      <data key="d0">DataObject</data>
    </node>
    <node id="ChargedProtoPAddPrs">
      <data key="d0">GaudiAlgorithm</data>
    </node>
    <node id="OfflineENNRingsSegAssoc">
      <data key="d0">GaudiAlgorithm</data>
    </node>
    <node id="OfflineENNFinderR1GasBottom">
      <data key="d0">GaudiAlgorithm</data>
    </node>
    <node id="HltDecReportsDecoder">
      <data key="d0">GaudiAlgorithm</data>
    </node>
    <node id="/Event/DAQ/ODIN">
      <data key="d0">DataObject</data>
    </node>
    <node id="EtaMon">
      <data key="d0">GaudiAlgorithm</data>
    </node>
    <node id="/Event/Rec/Status">
      <data key="d0">DataObject</data>
    </node>
    <node id="SingleElectronRec">
      <data key="d0">GaudiAlgorithm</data>
    </node>
    <node id="/Event/Link/Rec/Track/BestClones">
      <data key="d0">DataObject</data>
    </node>
    <node id="OfflineENNFinderR2GasRight">
      <data key="d0">GaudiAlgorithm</data>
    </node>
    <node id="EcalE">
      <data key="d0">GaudiAlgorithm</data>
    </node>
    <node id="DecodeRawRichOffline">
      <data key="d0">GaudiAlgorithm</data>
    </node>
    <node id="PatSeeding">
      <data key="d0">GaudiAlgorithm</data>
    </node>
    <node id="PackMuonTracks">
      <data key="d0">GaudiAlgorithm</data>
    </node>
    <node id="PackElectrons">
      <data key="d0">GaudiAlgorithm</data>
    </node>
    <node id="/Event/Rec/Calo/ClusChi2">
      <data key="d0">DataObject</data>
    </node>
    <node id="/Event/Rec/Track/Seed">
      <data key="d0">DataObject</data>
    </node>
    <node id="PackTracks">
      <data key="d0">GaudiAlgorithm</data>
    </node>
    <node id="/Event/Rec/Calo/PrsE">
      <data key="d0">DataObject</data>
    </node>
    <node id="HcalDigitMon">
      <data key="d0">GaudiAlgorithm</data>
    </node>
    <node id="/Event/pRec/Track/Best">
      <data key="d0">DataObject</data>
    </node>
    <node id="/Event/Rec/ProtoP/Neutrals">
      <data key="d0">DataObject</data>
    </node>
    <node id="OfflineBestENNRings">
      <data key="d0">GaudiAlgorithm</data>
    </node>
    <node id="ITClusterMonitor">
      <data key="d0">GaudiAlgorithm</data>
    </node>
    <node id="createBothVeloClusters">
      <data key="d0">GaudiAlgorithm</data>
    </node>
    <node id="FlagTrackClones">
      <data key="d0">GaudiAlgorithm</data>
    </node>
    <node id="ENNRingMoniIsolated">
      <data key="d0">GaudiAlgorithm</data>
    </node>
    <node id="InPRS">
      <data key="d0">GaudiAlgorithm</data>
    </node>
    <node id="CreateOfflinePixels">
      <data key="d0">GaudiAlgorithm</data>
    </node>
    <node id="FilterBestTrackStates">
      <data key="d0">GaudiAlgorithm</data>
    </node>
    <node id="/Event/Rec/Calo/MergedPi0s">
      <data key="d0">DataObject</data>
    </node>
    <node id="TrackV0Monitor">
      <data key="d0">GaudiAlgorithm</data>
    </node>
    <node id="/Event/Rec/Calo/EcalPIDmu">
      <data key="d0">DataObject</data>
    </node>
    <node id="InHCAL">
      <data key="d0">GaudiAlgorithm</data>
    </node>
    <node id="RiCKResLong">
      <data key="d0">GaudiAlgorithm</data>
    </node>
    <node id="createTTClusters">
      <data key="d0">GaudiAlgorithm</data>
    </node>
    <node id="ElectronMon">
      <data key="d0">GaudiAlgorithm</data>
    </node>
    <node id="TrackEcalMatchMonitor">
      <data key="d0">GaudiAlgorithm</data>
    </node>
    <node id="create_Muon_RawEvent">
      <data key="d0">GaudiAlgorithm</data>
    </node>
    <node id="ANNGPIDDownstreamProton">
      <data key="d0">GaudiAlgorithm</data>
    </node>
    <node id="/Event/Other/RawEvent">
      <data key="d0">DataObject</data>
    </node>
    <node id="PackSplitPhotons">
      <data key="d0">GaudiAlgorithm</data>
    </node>
    <edge source="PatForward" target="/Event/Rec/Track/Forward" />
    <edge source="/Event/Rec/Calo/InAccHcal" target="ChargedProtoPAddHcal" />
    <edge source="/Event/Rec/Calo/InAccHcal" target="HcalE" />
    <edge source="/Event/pRec/Muon/MuonPID" target="DstWriter" />
    <edge source="PatMatch" target="/Event/Rec/Track/Match" />
    <edge source="/Event/pRec/Vertex/Primary" target="DstWriter" />
    <edge source="/Event/Transient/DAQ/Status" target="MuonROFilter" />
    <edge source="/Event/Transient/DAQ/Status" target="EcalProcStatus" />
    <edge source="/Event/Transient/DAQ/Status" target="PrsFromRaw" />
    <edge source="/Event/Transient/DAQ/Status" target="MuonRec" />
    <edge source="/Event/Transient/DAQ/Status" target="HcalZSup" />
    <edge source="/Event/Transient/DAQ/Status" target="MuonProcStatus" />
    <edge source="/Event/Transient/DAQ/Status" target="L0DUFromRaw" />
    <edge source="/Event/Transient/DAQ/Status" target="HcalProcStatus" />
    <edge source="/Event/Transient/DAQ/Status" target="EcalZSup" />
    <edge source="/Event/Transient/DAQ/Status" target="PrsProcStatus" />
    <edge source="L0DUFromRaw" target="/Event/Trig/L0/L0DUReport" />
    <edge source="/Event/Rec/Vertex/V0" target="PackTwoProngVertex" />
    <edge source="/Event/Rec/Vertex/V0" target="TrackV0Monitor" />
    <edge source="EcalZSup" target="/Event/Raw/Ecal/Digits" />
    <edge source="/Event/Rec/Calo/InAccSpd" target="SpdE" />
    <edge source="/Event/Rec/Calo/InAccSpd" target="ChargedProtoPAddSpd" />
    <edge source="/Event/Rec/Track/Muon" target="RecSummary" />
    <edge source="/Event/Rec/Track/Muon" target="TrackDiMuonMonitor" />
    <edge source="/Event/Rec/Track/Muon" target="MuonPIDMonitorLong" />
    <edge source="/Event/Rec/Track/Muon" target="FilterMuonTrackStates" />
    <edge source="/Event/Rec/Track/Muon" target="MuonTrackFitter" />
    <edge source="/Event/Rec/Track/Muon" target="PackMuonTracks" />
    <edge source="/Event/Rec/Calo/SplitPhotons" target="SplitPhotonMon" />
    <edge source="/Event/Rec/Calo/SplitPhotons" target="NeutralProtoPMaker" />
    <edge source="/Event/Rec/Calo/SplitPhotons" target="PackSplitPhotons" />
    <edge source="/Event/Rec/Calo/SplitPhotons" target="PhotonFromMergedID" />
    <edge source="PackChargedProtos" target="/Event/pRec/ProtoP/Charged" />
    <edge source="EcalPIDe" target="/Event/Rec/Calo/EcalPIDe" />
    <edge source="/Event/DAQ/RawEvent" target="create_Other_RawEvent" />
    <edge source="/Event/DAQ/RawEvent" target="HcalZSup" />
    <edge source="/Event/DAQ/RawEvent" target="DecodeRawRichOffline" />
    <edge source="/Event/DAQ/RawEvent" target="createTTClusters" />
    <edge source="/Event/DAQ/RawEvent" target="createBothVeloClusters" />
    <edge source="/Event/DAQ/RawEvent" target="create_Calo_RawEvent" />
    <edge source="/Event/DAQ/RawEvent" target="create_Trigger_RawEvent" />
    <edge source="/Event/DAQ/RawEvent" target="createITClusters" />
    <edge source="/Event/DAQ/RawEvent" target="PrsFromRaw" />
    <edge source="/Event/DAQ/RawEvent" target="RichRawDataSize" />
    <edge source="/Event/DAQ/RawEvent" target="MuonRec" />
    <edge source="/Event/DAQ/RawEvent" target="createTTLiteClusters" />
    <edge source="/Event/DAQ/RawEvent" target="L0DUFromRaw" />
    <edge source="/Event/DAQ/RawEvent" target="create_Rich_RawEvent" />
    <edge source="/Event/DAQ/RawEvent" target="SpdFromRaw" />
    <edge source="/Event/DAQ/RawEvent" target="EcalZSup" />
    <edge source="/Event/DAQ/RawEvent" target="HltDecReportsDecoder" />
    <edge source="/Event/DAQ/RawEvent" target="PhysFilter" />
    <edge source="/Event/DAQ/RawEvent" target="createITLiteClusters" />
    <edge source="/Event/DAQ/RawEvent" target="BrunelInit" />
    <edge source="/Event/DAQ/RawEvent" target="create_Muon_RawEvent" />
    <edge source="/Event/Rec/Calo/EcalSplitClusters" target="PhotonMatchMon" />
    <edge source="Framework" target="/Event/DAQ/RawEvent" />
    <edge source="Framework" target="/Event/DAQ/ODIN" />
    <edge source="PackMergedPi0s" target="/Event/pRec/Calo/MergedPi0s" />
    <edge source="/Event/Raw/IT/LiteClusters" target="PatForward" />
    <edge source="/Event/Raw/IT/LiteClusters" target="TrackBestTrackCreator" />
    <edge source="BrunelInit" target="/Event/Rec/Status" />
    <edge source="ChargedProtoPMaker" target="/Event/Rec/ProtoP/Charged" />
    <edge source="create_Other_RawEvent" target="/Event/Other/RawEvent" />
    <edge source="create_Trigger_RawEvent" target="/Event/Trigger/RawEvent" />
    <edge source="/Event/Rec/Calo/HcalE" target="HcalPIDmu" />
    <edge source="/Event/Rec/Calo/HcalE" target="ChargedProtoPAddHcal" />
    <edge source="/Event/Rec/Calo/HcalE" target="HcalPIDe" />
    <edge source="/Event/Rec/Calo/PhotonFromMergedID" target="NeutralProtoPMaker" />
    <edge source="/Event/Rec/Calo/PhotonFromMergedID" target="ChargedProtoPAddEcal" />
    <edge source="/Event/Rec/Calo/PhotonFromMergedID" target="ChargedProtoPAddBrem" />
    <edge source="/Event/Raw/Prs/Digits" target="MergedPi0Rec" />
    <edge source="/Event/Raw/Prs/Digits" target="TrackPrsMatchMonitor" />
    <edge source="/Event/Raw/Prs/Digits" target="PhotonID" />
    <edge source="/Event/Raw/Prs/Digits" target="MergedID" />
    <edge source="/Event/Raw/Prs/Digits" target="CaloDigitFilter" />
    <edge source="/Event/Raw/Prs/Digits" target="PhotonFromMergedID" />
    <edge source="/Event/Raw/Prs/Digits" target="NeutralProtoPMaker" />
    <edge source="/Event/Raw/Prs/Digits" target="SinglePhotonRec" />
    <edge source="/Event/Raw/Prs/Digits" target="ChargedProtoPAddEcal" />
    <edge source="/Event/Raw/Prs/Digits" target="PrsE" />
    <edge source="/Event/Raw/Prs/Digits" target="PrsDigitMon" />
    <edge source="ElectronMatch" target="/Event/Rec/Calo/ElectronMatch" />
    <edge source="/Event/Trig/L0/L0DUReport" target="RichL0Filter" />
    <edge source="SpdFromRaw" target="/Event/Raw/Spd/Digits" />
    <edge source="SpdFromRaw" target="/Event/Transient/DAQ/Status" />
    <edge source="createTTLiteClusters" target="/Event/Raw/TT/LiteClusters" />
    <edge source="/Event/Rec/Rich/ENN/Offline/RingsBest" target="OfflineIsolatedENNRings" />
    <edge source="/Event/Rec/Rich/ENN/Offline/RingsBest" target="ENNRingMoniBest" />
    <edge source="/Event/Rec/Muon/MuonPID" target="PackMuonPIDs" />
    <edge source="/Event/Rec/Muon/MuonPID" target="MuonTrackAligMonitor" />
    <edge source="/Event/Rec/Muon/MuonPID" target="ChargedProtoPAddMuon" />
    <edge source="/Event/Rec/Calo/ClusterMatch" target="NeutralProtoPMaker" />
    <edge source="/Event/Rec/Calo/ClusterMatch" target="ChargedProtoPAddBrem" />
    <edge source="/Event/Rec/Calo/ClusterMatch" target="PhotonID" />
    <edge source="/Event/Rec/Calo/ClusterMatch" target="ClusChi22ID" />
    <edge source="/Event/Rec/Calo/ClusterMatch" target="MergedID" />
    <edge source="/Event/Rec/Calo/ClusterMatch" target="PhotonMatchMon" />
    <edge source="/Event/Rec/Calo/ClusterMatch" target="PhotonFromMergedID" />
    <edge source="/Event/Rec/Calo/ClusterMatch" target="SinglePhotonRec" />
    <edge source="/Event/Rec/Calo/ClusterMatch" target="ChargedProtoPAddEcal" />
    <edge source="/Event/Rec/Calo/ClusterMatch" target="SingleElectronRec" />
    <edge source="/Event/Rec/Calo/HcalPIDmu" target="ChargedProtoPAddHcal" />
    <edge source="/Event/Rec/Calo/EcalE" target="ChargedProtoPAddEcal" />
    <edge source="/Event/Rec/Calo/EcalE" target="EcalPIDmu" />
    <edge source="/Event/Rec/Calo/Photons" target="EtaMon" />
    <edge source="/Event/Rec/Calo/Photons" target="PhotonMon" />
    <edge source="/Event/Rec/Calo/Photons" target="BremMatch" />
    <edge source="/Event/Rec/Calo/Photons" target="ResolvedPi0Mon" />
    <edge source="/Event/Rec/Calo/Photons" target="PackPhotons" />
    <edge source="/Event/Rec/Calo/Photons" target="BremMatchMon" />
    <edge source="/Event/Rec/Calo/Photons" target="PhotonID" />
    <edge source="/Event/Rec/Calo/Photons" target="NeutralProtoPMaker" />
    <edge source="PackMuonPIDs" target="/Event/pRec/Muon/MuonPID" />
    <edge source="/Event/Muon/RawEvent" target="DstWriter" />
    <edge source="/Event/Rec/Track/Best" target="RecSummary" />
    <edge source="/Event/Rec/Track/Best" target="TrackAlignMonitor" />
    <edge source="/Event/Rec/Track/Best" target="BremMatch" />
    <edge source="/Event/Rec/Track/Best" target="TrackFitMatchMonitor" />
    <edge source="/Event/Rec/Track/Best" target="TTTrackMonitor" />
    <edge source="/Event/Rec/Track/Best" target="ClusChi22ID" />
    <edge source="/Event/Rec/Track/Best" target="ITTrackMonitor" />
    <edge source="/Event/Rec/Track/Best" target="RiMatchTrkEff" />
    <edge source="/Event/Rec/Track/Best" target="FindTrackClones" />
    <edge source="/Event/Rec/Track/Best" target="TrackV0Finder" />
    <edge source="/Event/Rec/Track/Best" target="RiLongTrkEff" />
    <edge source="/Event/Rec/Track/Best" target="RiSeedTrkEff" />
    <edge source="/Event/Rec/Track/Best" target="RiPIDMonLong2To10" />
    <edge source="/Event/Rec/Track/Best" target="TrackAddNNGhostId" />
    <edge source="/Event/Rec/Track/Best" target="AlignmentOnlineMonitor" />
    <edge source="/Event/Rec/Track/Best" target="TrackSpdMatchMonitor" />
    <edge source="/Event/Rec/Track/Best" target="RiPIDMonLong10To70" />
    <edge source="/Event/Rec/Track/Best" target="CreateOfflineTracks" />
    <edge source="/Event/Rec/Track/Best" target="PrsE" />
    <edge source="/Event/Rec/Track/Best" target="EcalE" />
    <edge source="/Event/Rec/Track/Best" target="FlagTrackClones" />
    <edge source="/Event/Rec/Track/Best" target="RiVeloTTTrkEff" />
    <edge source="/Event/Rec/Track/Best" target="ClusterMatch" />
    <edge source="/Event/Rec/Track/Best" target="ChargedProtoPMaker" />
    <edge source="/Event/Rec/Track/Best" target="TrackAddLikelihood" />
    <edge source="/Event/Rec/Track/Best" target="OTHitEfficiencyMonitor" />
    <edge source="/Event/Rec/Track/Best" target="TrackMuonMatchMonitor" />
    <edge source="/Event/Rec/Track/Best" target="MuonIDAlg" />
    <edge source="/Event/Rec/Track/Best" target="PackTracks" />
    <edge source="/Event/Rec/Track/Best" target="PatPVOffline" />
    <edge source="/Event/Rec/Track/Best" target="RiForwardTrkEff" />
    <edge source="/Event/Rec/Track/Best" target="TrackVertexMonitor" />
    <edge source="/Event/Rec/Track/Best" target="ElectronMatch" />
    <edge source="/Event/Rec/Track/Best" target="TrackMonitor" />
    <edge source="/Event/Rec/Track/Best" target="TrackPV2HalfAlignMonitor" />
    <edge source="/Event/Rec/Track/Best" target="HcalE" />
    <edge source="/Event/Rec/Track/Best" target="InBREM" />
    <edge source="/Event/Rec/Track/Best" target="ChargedProtoPMoni" />
    <edge source="/Event/Rec/Track/Best" target="InSPD" />
    <edge source="/Event/Rec/Track/Best" target="RiPIDMonLong2To100" />
    <edge source="/Event/Rec/Track/Best" target="TrackEraseExtraInfo" />
    <edge source="/Event/Rec/Track/Best" target="TrackVeloOverlapMonitor" />
    <edge source="/Event/Rec/Track/Best" target="TrackPrsMatchMonitor" />
    <edge source="/Event/Rec/Track/Best" target="RiKsTrackTrkEff" />
    <edge source="/Event/Rec/Track/Best" target="OTTrackMonitor" />
    <edge source="/Event/Rec/Track/Best" target="InPRS" />
    <edge source="/Event/Rec/Track/Best" target="BremChi22ID" />
    <edge source="/Event/Rec/Track/Best" target="FilterBestTrackStates" />
    <edge source="/Event/Rec/Track/Best" target="VeloTrackMonitor" />
    <edge source="/Event/Rec/Track/Best" target="InHCAL" />
    <edge source="/Event/Rec/Track/Best" target="TrackITOverlapMonitor" />
    <edge source="/Event/Rec/Track/Best" target="EcalChi22ID" />
    <edge source="/Event/Rec/Track/Best" target="InECAL" />
    <edge source="/Event/Rec/Track/Best" target="TrackEcalMatchMonitor" />
    <edge source="/Event/Rec/Track/Best" target="RiPIDMonLong70To100" />
    <edge source="/Event/Rec/Track/Best" target="SpdE" />
    <edge source="/Event/Rec/Track/Best" target="MuonPIDMonitorLong" />
    <edge source="create_Calo_RawEvent" target="/Event/Calo/RawEvent" />
    <edge source="MergedPi0Rec" target="/Event/Rec/Calo/EcalSplitClusters" />
    <edge source="MergedPi0Rec" target="/Event/Rec/Calo/SplitPhotons" />
    <edge source="MergedPi0Rec" target="/Event/Rec/Calo/MergedPi0s" />
    <edge source="RecSummary" target="/Event/Rec/Summary" />
    <edge source="BremPIDe" target="/Event/Rec/Calo/BremPIDe" />
    <edge source="/Event/Rec/Track/Velo" target="MuMonitor" />
    <edge source="/Event/Rec/Track/Velo" target="PatMatch" />
    <edge source="/Event/Rec/Track/Velo" target="PatForward" />
    <edge source="/Event/Rec/Track/Velo" target="TrackBestTrackCreator" />
    <edge source="/Event/Rec/Track/Velo" target="PatVeloTT" />
    <edge source="/Event/Raw/TT/LiteClusters" target="PatForward" />
    <edge source="/Event/Raw/TT/LiteClusters" target="TrackBestTrackCreator" />
    <edge source="HcalPIDe" target="/Event/Rec/Calo/HcalPIDe" />
    <edge source="MergedID" target="/Event/Rec/Calo/MergedID" />
    <edge source="/Event/Rec/Summary" target="DstWriter" />
    <edge source="FastVeloTracking" target="/Event/Rec/Track/Velo" />
    <edge source="/Event/Raw/IT/Clusters" target="ITTrackMonitor" />
    <edge source="/Event/Raw/IT/Clusters" target="TrackAddNNGhostId" />
    <edge source="/Event/Raw/IT/Clusters" target="ITClusterMonitor" />
    <edge source="/Event/Raw/IT/Clusters" target="RecSummary" />
    <edge source="/Event/Raw/IT/Clusters" target="TrackBestTrackCreator" />
    <edge source="/Event/pRec/Rich/PIDs" target="DstWriter" />
    <edge source="HcalZSup" target="/Event/Raw/Hcal/Digits" />
    <edge source="NeutralProtoPMaker" target="/Event/Rec/ProtoP/Neutrals" />
    <edge source="PackTwoProngVertex" target="/Event/pRec/Vertex/V0" />
    <edge source="/Event/pRec/Calo/Electrons" target="DstWriter" />
    <edge source="/Event/Rec/Rich/GlobalPID/Offline/Tracks" target="RichOfflineGPIDLLIt0" />
    <edge source="/Event/Rec/Rich/GlobalPID/Offline/Tracks" target="RichOfflineGPIDLLIt1" />
    <edge source="/Event/Rec/Rich/GlobalPID/Offline/Tracks" target="RichOfflineGPIDFin" />
    <edge source="EcalClust" target="/Event/Rec/Calo/EcalClusters" />
    <edge source="/Event/Rec/Calo/InAccEcal" target="ElectronMatch" />
    <edge source="/Event/Rec/Calo/InAccEcal" target="EcalE" />
    <edge source="/Event/Rec/Calo/InAccEcal" target="ChargedProtoPAddEcal" />
    <edge source="/Event/Rec/Calo/InAccEcal" target="ClusterMatch" />
    <edge source="/Event/Rec/Rich/GlobalPID/Offline/PIDs" target="MergeOfflineRichPIDs" />
    <edge source="/Event/Rec/Calo/Electrons" target="ElectronMatch" />
    <edge source="/Event/Rec/Calo/Electrons" target="PackElectrons" />
    <edge source="/Event/Rec/Calo/Electrons" target="ElectronMatchMon" />
    <edge source="/Event/Rec/Calo/Electrons" target="ElectronMon" />
    <edge source="/Event/Rec/Track/VeloTT" target="TrackBestTrackCreator" />
    <edge source="/Event/pRec/Calo/Photons" target="DstWriter" />
    <edge source="InBREM" target="/Event/Rec/Calo/InAccBrem" />
    <edge source="PhotonFromMergedID" target="/Event/Rec/Calo/PhotonFromMergedID" />
    <edge source="HcalPIDmu" target="/Event/Rec/Calo/HcalPIDmu" />
    <edge source="/Event/Rec/Track/Downstream" target="TrackBestTrackCreator" />
    <edge source="/Event/Calo/RawEvent" target="DstWriter" />
    <edge source="/Event/Rec/Rich/ENN/Offline/RingsAll" target="OfflineENNFinderR2GasLeft" />
    <edge source="/Event/Rec/Rich/ENN/Offline/RingsAll" target="OfflineBestENNRings" />
    <edge source="/Event/Rec/Rich/ENN/Offline/RingsAll" target="OfflineENNFinderR2GasRight" />
    <edge source="/Event/Rec/Rich/ENN/Offline/RingsAll" target="OfflineENNRingsSegAssoc" />
    <edge source="/Event/Rec/Rich/ENN/Offline/RingsAll" target="OfflineENNFinderR1GasBottom" />
    <edge source="/Event/Rec/Rich/ENN/Offline/RingsAll" target="ENNRingMoniAll" />
    <edge source="PackRichPIDs" target="/Event/pRec/Rich/PIDs" />
    <edge source="/Event/Rec/Calo/BremPIDe" target="ChargedProtoPAddBrem" />
    <edge source="MergeOfflineRichPIDs" target="/Event/Rec/Rich/PIDs" />
    <edge source="/Event/pRec/ProtoP/Neutrals" target="DstWriter" />
    <edge source="PrsFromRaw" target="/Event/Raw/Prs/Digits" />
    <edge source="/Event/Rec/Track/Forward" target="TrackBestTrackCreator" />
    <edge source="/Event/Rec/Track/Forward" target="PatVeloTT" />
    <edge source="/Event/pRec/ProtoP/Charged" target="DstWriter" />
    <edge source="OfflineIsolatedENNRings" target="/Event/Rec/Rich/ENN/Offline/RingsIsolated" />
    <edge source="/Event/Rec/ProtoP/Charged" target="ChargedProtoPAddPrs" />
    <edge source="/Event/Rec/ProtoP/Charged" target="ChargedProtoPAddSpd" />
    <edge source="/Event/Rec/ProtoP/Charged" target="ANNGPIDUpstreamElectron" />
    <edge source="/Event/Rec/ProtoP/Charged" target="ANNGPIDDownstreamGhost" />
    <edge source="/Event/Rec/ProtoP/Charged" target="ChargedProtoPAddVeloDEDX" />
    <edge source="/Event/Rec/ProtoP/Charged" target="ANNGPIDLongMuon" />
    <edge source="/Event/Rec/ProtoP/Charged" target="ChargedProtoANNPIDMoni" />
    <edge source="/Event/Rec/ProtoP/Charged" target="ANNGPIDUpstreamProton" />
    <edge source="/Event/Rec/ProtoP/Charged" target="ChargedProtoPAddEcal" />
    <edge source="/Event/Rec/ProtoP/Charged" target="ANNGPIDUpstreamGhost" />
    <edge source="/Event/Rec/ProtoP/Charged" target="PackChargedProtos" />
    <edge source="/Event/Rec/ProtoP/Charged" target="ProtoElectronMon" />
    <edge source="/Event/Rec/ProtoP/Charged" target="ANNGPIDDownstreamElectron" />
    <edge source="/Event/Rec/ProtoP/Charged" target="ANNGPIDLongPion" />
    <edge source="/Event/Rec/ProtoP/Charged" target="CaloEMuPIDMonSoft" />
    <edge source="/Event/Rec/ProtoP/Charged" target="ChargedProtoPAddHcal" />
    <edge source="/Event/Rec/ProtoP/Charged" target="CaloEMuPIDMonUncut" />
    <edge source="/Event/Rec/ProtoP/Charged" target="ANNGPIDDownstreamMuon" />
    <edge source="/Event/Rec/ProtoP/Charged" target="CaloEMuPIDMonHard" />
    <edge source="/Event/Rec/ProtoP/Charged" target="ANNGPIDUpstreamMuon" />
    <edge source="/Event/Rec/ProtoP/Charged" target="ANNGPIDLongGhost" />
    <edge source="/Event/Rec/ProtoP/Charged" target="ChargedProtoPAddMuon" />
    <edge source="/Event/Rec/ProtoP/Charged" target="ChargedProtoPMoni" />
    <edge source="/Event/Rec/ProtoP/Charged" target="ANNGPIDLongKaon" />
    <edge source="/Event/Rec/ProtoP/Charged" target="ANNGPIDDownstreamKaon" />
    <edge source="/Event/Rec/ProtoP/Charged" target="ChargedProtoPAddBrem" />
    <edge source="/Event/Rec/ProtoP/Charged" target="ChargedProtoPCombDLLs" />
    <edge source="/Event/Rec/ProtoP/Charged" target="ANNGPIDLongElectron" />
    <edge source="/Event/Rec/ProtoP/Charged" target="ANNGPIDDownstreamPion" />
    <edge source="/Event/Rec/ProtoP/Charged" target="ChargedProtoPAddRich" />
    <edge source="/Event/Rec/ProtoP/Charged" target="ANNGPIDUpstreamKaon" />
    <edge source="/Event/Rec/ProtoP/Charged" target="ANNGPIDUpstreamPion" />
    <edge source="/Event/Rec/ProtoP/Charged" target="ANNGPIDLongProton" />
    <edge source="/Event/Rec/ProtoP/Charged" target="ANNGPIDDownstreamProton" />
    <edge source="/Event/Rec/ProtoP/Charged" target="ProtoParticlePIDClean" />
    <edge source="BremChi22ID" target="/Event/Rec/Calo/BremChi2" />
    <edge source="HcalE" target="/Event/Rec/Calo/HcalE" />
    <edge source="/Event/Rec/Calo/MergedID" target="NeutralProtoPMaker" />
    <edge source="/Event/Rec/Calo/MergedID" target="ChargedProtoPAddEcal" />
    <edge source="/Event/Rec/Calo/MergedID" target="ChargedProtoPAddBrem" />
    <edge source="TrackBestTrackCreator" target="/Event/Rec/Track/Best" />
    <edge source="/Event/Rec/Calo/PhotonID" target="NeutralProtoPMaker" />
    <edge source="/Event/Rec/Calo/PhotonID" target="ChargedProtoPAddEcal" />
    <edge source="/Event/Rec/Calo/PhotonID" target="ChargedProtoPAddBrem" />
    <edge source="createITClusters" target="/Event/Raw/IT/Clusters" />
    <edge source="/Event/Rec/Calo/SpdE" target="ChargedProtoPAddSpd" />
    <edge source="/Event/Hlt/DecReports" target="HltErrorFilter" />
    <edge source="/Event/Hlt/DecReports" target="HltCompositionMonitor" />
    <edge source="/Event/Hlt/DecReports" target="HltRateMonitor" />
    <edge source="/Event/Hlt/DecReports" target="RichHlt1Filter" />
    <edge source="/Event/Hlt/DecReports" target="MuMonitor" />
    <edge source="/Event/Hlt/DecReports" target="HltRateMonitorMB" />
    <edge source="/Event/Rec/Calo/BremChi2" target="ChargedProtoPAddBrem" />
    <edge source="/Event/Rec/Calo/BremChi2" target="BremPIDe" />
    <edge source="/Event/Rec/Calo/HcalPIDe" target="ChargedProtoPAddHcal" />
    <edge source="/Event/Rec/Calo/EcalPIDe" target="ChargedProtoPAddEcal" />
    <edge source="SinglePhotonRec" target="/Event/Rec/Calo/Photons" />
    <edge source="/Event/pRec/Calo/MergedPi0s" target="DstWriter" />
    <edge source="/Event/Raw/Velo/Clusters" target="TrackAddNNGhostId" />
    <edge source="/Event/Raw/Velo/Clusters" target="RecSummary" />
    <edge source="/Event/Raw/Velo/Clusters" target="PatVeloTT" />
    <edge source="/Event/Raw/Velo/Clusters" target="VeloTrackMonitor" />
    <edge source="/Event/Raw/Velo/Clusters" target="TrackBestTrackCreator" />
    <edge source="/Event/Raw/Velo/Clusters" target="VeloClusterMonitor" />
    <edge source="/Event/Rec/Track/Match" target="PatDownstream" />
    <edge source="/Event/Rec/Track/Match" target="TrackBestTrackCreator" />
    <edge source="/Event/Rec/Track/Match" target="PatVeloTT" />
    <edge source="/Event/Raw/Muon/Coords" target="MuonIDAlg" />
    <edge source="/Event/Raw/Muon/Coords" target="RecSummary" />
    <edge source="/Event/Raw/Muon/Coords" target="TrackMuonMatchMonitor" />
    <edge source="/Event/Raw/Spd/Digits" target="MergedPi0Rec" />
    <edge source="/Event/Raw/Spd/Digits" target="RecSummary" />
    <edge source="/Event/Raw/Spd/Digits" target="SpdDigitMon" />
    <edge source="/Event/Raw/Spd/Digits" target="TrackSpdMatchMonitor" />
    <edge source="/Event/Raw/Spd/Digits" target="SpdMon" />
    <edge source="/Event/Raw/Spd/Digits" target="SinglePhotonRec" />
    <edge source="/Event/Raw/Spd/Digits" target="SpdE" />
    <edge source="/Event/Raw/Spd/Digits" target="CaloDigitFilter" />
    <edge source="/Event/Rec/Rich/ENN/Offline/RingsIsolated" target="ENNRingMoniIsolated" />
    <edge source="PackNeutralProtos" target="/Event/pRec/ProtoP/Neutrals" />
    <edge source="PhotonID" target="/Event/Rec/Calo/PhotonID" />
    <edge source="/Event/Rec/Calo/PrsPIDe" target="ChargedProtoPAddPrs" />
    <edge source="OfflineENNFinderR1GasTop" target="/Event/Rec/Rich/ENN/Offline/RingsAll" />
    <edge source="PrsE" target="/Event/Rec/Calo/PrsE" />
    <edge source="ClusterMatch" target="/Event/Rec/Calo/ClusterMatch" />
    <edge source="/Event/Rec/Calo/InAccBrem" target="BremMatch" />
    <edge source="/Event/Rec/Calo/InAccBrem" target="ChargedProtoPAddBrem" />
    <edge source="/Event/Rec/Calo/InAccPrs" target="ChargedProtoPAddPrs" />
    <edge source="/Event/Rec/Calo/InAccPrs" target="PrsE" />
    <edge source="MuonIDAlg" target="/Event/Rec/Track/Muon" />
    <edge source="MuonIDAlg" target="/Event/Rec/Muon/MuonPID" />
    <edge source="PatPVOffline" target="/Event/Rec/Vertex/Primary" />
    <edge source="/Event/Raw/Velo/LiteClusters" target="FastVeloTracking" />
    <edge source="MuonRec" target="/Event/Raw/Muon/Coords" />
    <edge source="/Event/Rec/Calo/ElectronMatch" target="ChargedProtoPAddBrem" />
    <edge source="/Event/Rec/Calo/ElectronMatch" target="PhotonID" />
    <edge source="/Event/Rec/Calo/ElectronMatch" target="EcalChi22ID" />
    <edge source="/Event/Rec/Calo/ElectronMatch" target="MergedID" />
    <edge source="/Event/Rec/Calo/ElectronMatch" target="PhotonFromMergedID" />
    <edge source="/Event/Rec/Calo/ElectronMatch" target="NeutralProtoPMaker" />
    <edge source="/Event/Rec/Calo/ElectronMatch" target="ChargedProtoPAddEcal" />
    <edge source="/Event/Rec/Calo/ElectronMatch" target="ElectronMatchMon" />
    <edge source="create_Rich_RawEvent" target="/Event/Rich/RawEvent" />
    <edge source="PrsPIDe" target="/Event/Rec/Calo/PrsPIDe" />
    <edge source="InSPD" target="/Event/Rec/Calo/InAccSpd" />
    <edge source="PackRecVertex" target="/Event/pRec/Vertex/Primary" />
    <edge source="/Event/Raw/Hcal/Digits" target="PhotonID" />
    <edge source="/Event/Raw/Hcal/Digits" target="CaloDigitFilter" />
    <edge source="/Event/Raw/Hcal/Digits" target="HcalE" />
    <edge source="/Event/Raw/Hcal/Digits" target="HcalDigitMon" />
    <edge source="PatDownstream" target="/Event/Rec/Track/Downstream" />
    <edge source="/Event/Trigger/RawEvent" target="DstWriter" />
    <edge source="EcalPIDmu" target="/Event/Rec/Calo/EcalPIDmu" />
    <edge source="/Event/Rec/Calo/BremMatch" target="ChargedProtoPAddBrem" />
    <edge source="/Event/Rec/Calo/BremMatch" target="PhotonID" />
    <edge source="/Event/Rec/Calo/BremMatch" target="BremMatchMon" />
    <edge source="/Event/Rec/Calo/BremMatch" target="MergedID" />
    <edge source="/Event/Rec/Calo/BremMatch" target="PhotonFromMergedID" />
    <edge source="/Event/Rec/Calo/BremMatch" target="BremChi22ID" />
    <edge source="/Event/Rec/Calo/BremMatch" target="NeutralProtoPMaker" />
    <edge source="/Event/Rec/Calo/BremMatch" target="ChargedProtoPAddEcal" />
    <edge source="/Event/pRec/Vertex/V0" target="DstWriter" />
    <edge source="EcalChi22ID" target="/Event/Rec/Calo/EcalChi2" />
    <edge source="InECAL" target="/Event/Rec/Calo/InAccEcal" />
    <edge source="/Event/pRec/Track/Muon" target="DstWriter" />
    <edge source="SpdE" target="/Event/Rec/Calo/SpdE" />
    <edge source="BremMatch" target="/Event/Rec/Calo/BremMatch" />
    <edge source="/Event/Raw/Ecal/Digits" target="EcalE" />
    <edge source="/Event/Raw/Ecal/Digits" target="EcalClust" />
    <edge source="/Event/Raw/Ecal/Digits" target="EcalDigitMon" />
    <edge source="/Event/Raw/Ecal/Digits" target="CaloDigitFilter" />
    <edge source="/Event/Raw/Ecal/Digits" target="EcalEFlowMon" />
    <edge source="createITLiteClusters" target="/Event/Raw/IT/LiteClusters" />
    <edge source="PackPhotons" target="/Event/pRec/Calo/Photons" />
    <edge source="ClusChi22ID" target="/Event/Rec/Calo/ClusChi2" />
    <edge source="FindTrackClones" target="/Event/Link/Rec/Track/BestClones" />
    <edge source="/Event/Rec/Calo/EcalClusters" target="EcalClusterMon" />
    <edge source="/Event/Rec/Calo/EcalClusters" target="MergedPi0Mon" />
    <edge source="/Event/Rec/Calo/EcalClusters" target="PhotonMon" />
    <edge source="/Event/Rec/Calo/EcalClusters" target="EcalShare" />
    <edge source="/Event/Rec/Calo/EcalClusters" target="EcalCovar" />
    <edge source="/Event/Rec/Calo/EcalClusters" target="SplitPhotonMon" />
    <edge source="/Event/Rec/Calo/EcalClusters" target="PhotonMatchMon" />
    <edge source="/Event/Rec/Calo/EcalClusters" target="MergedPi0Rec" />
    <edge source="/Event/Rec/Calo/EcalClusters" target="ElectronMon" />
    <edge source="/Event/Rec/Calo/EcalClusters" target="TrackEcalMatchMonitor" />
    <edge source="/Event/Rec/Calo/EcalClusters" target="SinglePhotonRec" />
    <edge source="/Event/Rec/Calo/EcalClusters" target="ClusterMatch" />
    <edge source="/Event/Rec/Calo/EcalClusters" target="SingleElectronRec" />
    <edge source="/Event/Rec/Vertex/Primary" target="PackRecVertex" />
    <edge source="/Event/Rec/Vertex/Primary" target="RecSummary" />
    <edge source="/Event/Rec/Vertex/Primary" target="TrackVertexMonitor" />
    <edge source="/Event/Rec/Vertex/Primary" target="TrackV0Monitor" />
    <edge source="/Event/Rec/Vertex/Primary" target="TrackV0Finder" />
    <edge source="/Event/Rec/Vertex/Primary" target="VeloIPResolutionMonitor" />
    <edge source="TrackV0Finder" target="/Event/Rec/Vertex/V0" />
    <edge source="/Event/pRec/Calo/SplitPhotons" target="DstWriter" />
    <edge source="/Event/Rec/Rich/PIDs" target="PackRichPIDs" />
    <edge source="/Event/Rec/Rich/PIDs" target="RiPIDMonLong2To10" />
    <edge source="/Event/Rec/Rich/PIDs" target="RiPIDMonLong10To70" />
    <edge source="/Event/Rec/Rich/PIDs" target="RiPIDMonLong70To100" />
    <edge source="/Event/Rec/Rich/PIDs" target="RiPIDMonLong2To100" />
    <edge source="/Event/Rec/Rich/PIDs" target="ChargedProtoPAddRich" />
    <edge source="/Event/Raw/TT/Clusters" target="TrackAddNNGhostId" />
    <edge source="/Event/Raw/TT/Clusters" target="RecSummary" />
    <edge source="/Event/Raw/TT/Clusters" target="TTTrackMonitor" />
    <edge source="/Event/Raw/TT/Clusters" target="PatVeloTT" />
    <edge source="/Event/Raw/TT/Clusters" target="TTClusterMonitor" />
    <edge source="/Event/Raw/TT/Clusters" target="TrackBestTrackCreator" />
    <edge source="PatVeloTT" target="/Event/Rec/Track/VeloTT" />
    <edge source="RichOfflineGPIDTrSel" target="/Event/Rec/Rich/GlobalPID/Offline/Tracks" />
    <edge source="RichOfflineGPIDTrSel" target="/Event/Rec/Rich/GlobalPID/Offline/PIDs" />
    <edge source="/Event/Rich/RawEvent" target="DstWriter" />
    <edge source="/Event/Rec/Calo/EcalChi2" target="EcalPIDe" />
    <edge source="/Event/Rec/Calo/EcalChi2" target="ChargedProtoPAddEcal" />
    <edge source="HltDecReportsDecoder" target="/Event/Hlt/DecReports" />
    <edge source="/Event/DAQ/ODIN" target="RichDecodingErrors" />
    <edge source="/Event/DAQ/ODIN" target="ITClusterMonitor" />
    <edge source="/Event/DAQ/ODIN" target="HltRateMonitorMB" />
    <edge source="/Event/DAQ/ODIN" target="HltRateMonitor" />
    <edge source="/Event/DAQ/ODIN" target="TimeSpanFilter" />
    <edge source="/Event/DAQ/ODIN" target="FilterBeam2" />
    <edge source="/Event/DAQ/ODIN" target="FilterBeamCrossing" />
    <edge source="/Event/DAQ/ODIN" target="FilterNoBeam" />
    <edge source="/Event/DAQ/ODIN" target="FilterBeam1" />
    <edge source="/Event/DAQ/ODIN" target="MuMonitor" />
    <edge source="/Event/DAQ/ODIN" target="TrackPV2HalfAlignMonitor" />
    <edge source="/Event/DAQ/ODIN" target="TTClusterMonitor" />
    <edge source="/Event/DAQ/ODIN" target="EventTimeMonitor" />
    <edge source="/Event/Rec/Status" target="RiCKResSeed" />
    <edge source="/Event/Rec/Status" target="EcalProcStatus" />
    <edge source="/Event/Rec/Status" target="ProcStatAbortMoni" />
    <edge source="/Event/Rec/Status" target="RichOfflineGPIDLLIt0" />
    <edge source="/Event/Rec/Status" target="RichOfflineGPIDLLIt1" />
    <edge source="/Event/Rec/Status" target="CheckProcOfflineStatus" />
    <edge source="/Event/Rec/Status" target="MuonProcStatus" />
    <edge source="/Event/Rec/Status" target="RiCKResMatch" />
    <edge source="/Event/Rec/Status" target="CreateOfflinePixels" />
    <edge source="/Event/Rec/Status" target="DstWriter" />
    <edge source="/Event/Rec/Status" target="RiCKResKsTrack" />
    <edge source="/Event/Rec/Status" target="RichOfflineGPIDTrSel" />
    <edge source="/Event/Rec/Status" target="RiCKResSeedTight" />
    <edge source="/Event/Rec/Status" target="CreateOfflineTracks" />
    <edge source="/Event/Rec/Status" target="RiCKResLongTight" />
    <edge source="/Event/Rec/Status" target="RiCKResForward" />
    <edge source="/Event/Rec/Status" target="CreateOfflinePhotons" />
    <edge source="/Event/Rec/Status" target="RiCKResForwardTight" />
    <edge source="/Event/Rec/Status" target="RiCKResMatchTight" />
    <edge source="/Event/Rec/Status" target="RiCKResVeloTT" />
    <edge source="/Event/Rec/Status" target="PatSeeding" />
    <edge source="/Event/Rec/Status" target="PrsProcStatus" />
    <edge source="/Event/Rec/Status" target="MergeOfflineRichPIDs" />
    <edge source="/Event/Rec/Status" target="RiCKResVeloTTTight" />
    <edge source="/Event/Rec/Status" target="RiCKResKsTrackTight" />
    <edge source="/Event/Rec/Status" target="RiCKResLong" />
    <edge source="/Event/Rec/Status" target="RichOfflineGPIDDigSel" />
    <edge source="/Event/Rec/Status" target="HcalProcStatus" />
    <edge source="SingleElectronRec" target="/Event/Rec/Calo/Electrons" />
    <edge source="/Event/Link/Rec/Track/BestClones" target="FlagTrackClones" />
    <edge source="EcalE" target="/Event/Rec/Calo/EcalE" />
    <edge source="PatSeeding" target="/Event/Rec/Track/Seed" />
    <edge source="PackMuonTracks" target="/Event/pRec/Track/Muon" />
    <edge source="PackElectrons" target="/Event/pRec/Calo/Electrons" />
    <edge source="/Event/Rec/Calo/ClusChi2" target="ChargedProtoPAddEcal" />
    <edge source="/Event/Rec/Track/Seed" target="PatDownstream" />
    <edge source="/Event/Rec/Track/Seed" target="PatMatch" />
    <edge source="/Event/Rec/Track/Seed" target="TrackBestTrackCreator" />
    <edge source="PackTracks" target="/Event/pRec/Track/Best" />
    <edge source="/Event/Rec/Calo/PrsE" target="PrsPIDe" />
    <edge source="/Event/Rec/Calo/PrsE" target="ChargedProtoPAddPrs" />
    <edge source="/Event/pRec/Track/Best" target="DstWriter" />
    <edge source="/Event/Rec/ProtoP/Neutrals" target="PackNeutralProtos" />
    <edge source="OfflineBestENNRings" target="/Event/Rec/Rich/ENN/Offline/RingsBest" />
    <edge source="createBothVeloClusters" target="/Event/Raw/Velo/Clusters" />
    <edge source="createBothVeloClusters" target="/Event/Raw/Velo/LiteClusters" />
    <edge source="InPRS" target="/Event/Rec/Calo/InAccPrs" />
    <edge source="/Event/Rec/Calo/MergedPi0s" target="MergedPi0Mon" />
    <edge source="/Event/Rec/Calo/MergedPi0s" target="PackMergedPi0s" />
    <edge source="/Event/Rec/Calo/MergedPi0s" target="MergedID" />
    <edge source="/Event/Rec/Calo/EcalPIDmu" target="ChargedProtoPAddEcal" />
    <edge source="InHCAL" target="/Event/Rec/Calo/InAccHcal" />
    <edge source="createTTClusters" target="/Event/Raw/TT/Clusters" />
    <edge source="create_Muon_RawEvent" target="/Event/Muon/RawEvent" />
    <edge source="/Event/Other/RawEvent" target="DstWriter" />
    <edge source="PackSplitPhotons" target="/Event/pRec/Calo/SplitPhotons" />
  </graph>
</graphml>
